{
  "images" : [
    {
      "idiom" : "universal",
      "filename" : "messageStickerPlusIcon.png",
      "scale" : "1x"
    },
    {
      "idiom" : "universal",
      "filename" : "messageStickerPlusIcon@2x.png",
      "scale" : "2x"
    },
    {
      "idiom" : "universal",
      "filename" : "messageStickerPlusIcon@3x.png",
      "scale" : "3x"
    }
  ],
  "info" : {
    "version" : 1,
    "author" : "xcode"
  }
}